…
``` r
library(tidytext)

el_vaq %>% 
  unnest_tokens(word, text) %>% 
  anti_join(stop_words) %>% 
  mutate(word = case_when(word == "taco" ~ "tacos",
                          word == "margarita" ~ "margaritas",
                          TRUE ~ word)) %>% 
  count(word, sort = TRUE)
```

    Joining, by = "word"

    # A tibble: 3,264 × 2
       word           n
       <chr>      <int>
     1 food         408
     2 mexican      254
     3 service      185
     4 el           171
     5 vaquero      128
     6 restaurant   116
     7 salsa        116
     8 time         111
     9 margaritas   107
    10 chips        105
    # … with 3,254 more rows
…
